^C:\USERS\PROBA\SOURCE\REPOS\HOMEWORK16\HOMEWORK16\DEBUG\SOURCE.OBJ
C:\USERS\PROBA\SOURCE\REPOS\HOMEWORK16\DEBUG\HOMEWORK16.EXE
C:\USERS\PROBA\SOURCE\REPOS\HOMEWORK16\DEBUG\HOMEWORK16.ILK
C:\USERS\PROBA\SOURCE\REPOS\HOMEWORK16\DEBUG\HOMEWORK16.PDB
